{
    "debug": "on",
    "name": "Belastingdienst Plugin",
    "plugins": {
        "ibv2018": {
            "src": "xml/XmlProcessor",
            "template": "./xml/template.json",
            "downloadpage" : ".ibv2019"
        }
    }
}