{
	"debug": "on",
  	"providers": {
  		"belastingdienst": {
    		"providerId": "belastingdienst",
			"name": "Belastingdienst",
    		"loginUrl": "https://mijn.belastingdienst.nl/VIADownload2020/index.html"
  		}
	}  
}